{
  "name": "news",
  "base": "PersistedModel",
  "idInjection": true,
  "options": {
    "validateUpsert": true
  },
  "properties": {
    "content": {
      "type": "string",
      "required": true
    },
    "title": {
      "type": "string",
      "required": true
    },
    "img": {
      "type": "string",
      "required": false
    },
    "link": {
      "type" : "string"
    }
  },
  "validations": [],
  "relations": {},
  "acls": [],
  "methods": {}
}
